uP/uP/uP_tb.vcd
$date
	Sun Nov 22 21:42:26 2020
$end
$version
	Icarus Verilog
$end
$timescale
	1ps
$end
$scope module testbench $end
$var wire 4 ! data_bus [3:0] $end
$var wire 1 " z_flag $end
$var wire 8 # program_byte [7:0] $end
$var wire 1 $ phase $end
$var wire 4 % oprnd [3:0] $end
$var wire 4 & instr [3:0] $end
$var wire 1 ' c_flag $end
$var wire 12 ( address_RAM [11:0] $end
$var wire 4 ) accu [3:0] $end
$var wire 12 * PC [11:0] $end
$var wire 4 + FF_out [3:0] $end
$var reg 1 , clock $end
$var reg 4 - pushbuttons [3:0] $end
$var reg 1 . reset $end
$var integer 32 / immediateDelay [31:0] $end
$var integer 32 0 jumpDelay [31:0] $end
$var integer 32 1 memoryDelay [31:0] $end
$var integer 32 2 nota [31:0] $end
$scope module uPmodule $end
$var wire 1 , clock $end
$var wire 4 3 data_bus [3:0] $end
$var wire 4 4 pushbuttons [3:0] $end
$var wire 1 . reset $end
$var wire 1 " z_flag $end
$var wire 1 5 weRAM $end
$var wire 8 6 program_byte [7:0] $end
$var wire 1 $ phase $end
$var wire 4 7 oprnd [3:0] $end
$var wire 1 8 oeOprnd $end
$var wire 1 9 oeIN $end
$var wire 1 : oeALU $end
$var wire 1 ; loadPC $end
$var wire 1 < loadOut $end
$var wire 1 = loadFlags $end
$var wire 1 > loadA $end
$var wire 4 ? instr [3:0] $end
$var wire 1 @ incPC $end
$var wire 1 A csRAM $end
$var wire 1 ' c_flag $end
$var wire 12 B address_RAM [11:0] $end
$var wire 4 C accu [3:0] $end
$var wire 1 D Zero $end
$var wire 1 E S2 $end
$var wire 1 F S1 $end
$var wire 1 G S0 $end
$var wire 12 H PC [11:0] $end
$var wire 4 I FF_out [3:0] $end
$var wire 1 J C $end
$var wire 4 K ALUout [3:0] $end
$scope module ACCU $end
$var wire 1 , clk $end
$var wire 1 > enable $end
$var wire 1 . rst $end
$var wire 4 L d [3:0] $end
$var reg 4 M q [3:0] $end
$upscope $end
$scope module ALU $end
$var wire 4 N A [3:0] $end
$var wire 4 O B [3:0] $end
$var wire 1 D Zero $end
$var wire 3 P op [2:0] $end
$var wire 4 Q out [3:0] $end
$var wire 1 J C $end
$var reg 5 R pseudoout [4:0] $end
$upscope $end
$scope module BUSALU $end
$var wire 1 : enable $end
$var wire 4 S in [3:0] $end
$var wire 4 T out [3:0] $end
$upscope $end
$scope module BUSIN $end
$var wire 1 9 enable $end
$var wire 4 U in [3:0] $end
$var wire 4 V out [3:0] $end
$upscope $end
$scope module BUSOPRND $end
$var wire 1 8 enable $end
$var wire 4 W out [3:0] $end
$var wire 4 X in [3:0] $end
$upscope $end
$scope module DECODE $end
$var wire 7 Y direccion [6:0] $end
$var wire 13 Z controlS [12:0] $end
$var reg 13 [ pseudocontrolS [12:0] $end
$upscope $end
$scope module FETCH $end
$var wire 1 , clk $end
$var wire 1 \ enable $end
$var wire 1 . rst $end
$var wire 4 ] q1 [3:0] $end
$var wire 4 ^ q0 [3:0] $end
$var wire 8 _ d [7:0] $end
$scope module f1 $end
$var wire 1 , clk $end
$var wire 4 ` d [3:0] $end
$var wire 1 \ enable $end
$var wire 1 . rst $end
$var reg 4 a q [3:0] $end
$upscope $end
$scope module f2 $end
$var wire 1 , clk $end
$var wire 4 b d [3:0] $end
$var wire 1 \ enable $end
$var wire 1 . rst $end
$var reg 4 c q [3:0] $end
$upscope $end
$upscope $end
$scope module FLAGS $end
$var wire 1 , clk $end
$var wire 2 d d [1:0] $end
$var wire 1 = enable $end
$var wire 1 . rst $end
$var reg 2 e q [1:0] $end
$upscope $end
$scope module OUTPUTS $end
$var wire 1 , clk $end
$var wire 4 f d [3:0] $end
$var wire 1 < enable $end
$var wire 1 . rst $end
$var reg 4 g q [3:0] $end
$upscope $end
$scope module PHASE $end
$var wire 1 , clk $end
$var wire 1 h enable $end
$var wire 1 . rst $end
$var wire 1 $ q $end
$scope module ffd1 $end
$var wire 1 , clk $end
$var wire 1 i d $end
$var wire 1 h enable $end
$var wire 1 . rst $end
$var reg 1 $ q $end
$upscope $end
$upscope $end
$scope module PROGRAMCOUNTER $end
$var wire 1 , clk $end
$var wire 1 @ enabled $end
$var wire 1 ; load $end
$var wire 12 j loadvalue [11:0] $end
$var wire 1 . rst $end
$var reg 12 k counter [11:0] $end
$upscope $end
$scope module RAM $end
$var wire 12 l address_RAM [11:0] $end
$var wire 1 A csRAM $end
$var wire 4 m data_bus [3:0] $end
$var wire 1 5 weRAM $end
$var reg 4 n data_out [3:0] $end
$upscope $end
$scope module ROM $end
$var wire 8 o data [7:0] $end
$var wire 12 p direccion [11:0] $end
$upscope $end
$upscope $end
$upscope $end
$enddefinitions $end
#0
$dumpvars
bx p
bx o
bx n
bx m
bx l
bx k
bx j
xi
1h
bx g
bx f
bx e
bx d
bx c
bx b
bx a
bx `
bx _
bx ^
bx ]
x\
bx [
bx Z
bx Y
bx X
bx W
bx V
b110 U
bx T
bx S
bx R
bx Q
bx P
bx O
bx N
bx M
bx L
bx K
xJ
bx I
bx H
xG
xF
xE
xD
bx C
bx B
xA
x@
bx ?
x>
x=
x<
x;
x:
x9
x8
bx 7
bx 6
x5
b110 4
bx 3
b0 2
b100010100 1
b1010010000 0
b10000 /
0.
b110 -
0,
bx +
bx *
bx )
bx (
x'
bx &
bx %
x$
bx #
x"
bx !
$end
#2
b0 !
b0 3
b0 O
b0 T
b0 V
b0 W
b0 f
b0 m
0<
08
09
1:
05
0A
0G
0F
b0 P
0E
0=
0>
0;
1@
b1000000001000 Z
b1000000001000 [
1D
b0 K
b0 L
b0 Q
b0 S
b1 d
0J
1i
1\
b0 R
0"
0'
b0 &
b0 ?
b0 ]
b0 a
b0 %
b0 7
b0 X
b0 ^
b0 c
b0 Y
0$
b0 )
b0 C
b0 M
b0 N
b0 e
b0 +
b0 I
b0 g
b1111 b
b100 `
b1001111 (
b1001111 B
b1001111 j
b1001111 l
b1001111 #
b1001111 6
b1001111 _
b1001111 o
b0 *
b0 H
b0 k
b0 p
1.
#3
0.
#5
b0 d
0D
b1111 K
b1111 L
b1111 Q
b1111 S
b1111 R
b1111 !
b1111 3
b1111 O
b1111 T
b1111 V
b1111 W
b1111 f
b1111 m
18
0:
b10 P
1F
1=
1>
0@
b11010000010 Z
b11010000010 [
0i
0\
1$
b1111 %
b1111 7
b1111 X
b1111 ^
b1111 c
b100001 Y
b100 &
b100 ?
b100 ]
b100 a
b1101 `
b111111011111 (
b111111011111 B
b111111011111 j
b111111011111 l
b11011111 #
b11011111 6
b11011111 _
b11011111 o
b1 *
b1 H
b1 k
b1 p
1,
#10
0,
#15
08
1:
b0 P
0F
0=
0>
1@
b1000000001000 Z
b1000000001000 [
1i
1\
b100000 Y
0$
b1111 )
b1111 C
b1111 M
b1111 N
1,
#16
b1000110 2
#20
0,
#25
1<
0@
b1001 Z
b1001 [
0i
0\
1$
b1101001 Y
b1101 &
b1101 ?
b1101 ]
b1101 a
b1 b
b101 `
b111101010001 (
b111101010001 B
b111101010001 j
b111101010001 l
b1010001 #
b1010001 6
b1010001 _
b1010001 o
b10 *
b10 H
b10 k
b10 p
1,
#30
0,
#35
0<
1@
b1000000001000 Z
b1000000001000 [
1i
1\
b1101000 Y
0$
b1111 +
b1111 I
b1111 g
1,
#36
b1100111 2
#40
0,
#45
b110 K
b110 L
b110 Q
b110 S
b110 R
b110 !
b110 3
b110 O
b110 T
b110 V
b110 W
b110 f
b110 m
19
0:
b10 P
1F
1=
1>
0@
b11010000100 Z
b11010000100 [
0i
0\
1$
b1 %
b1 7
b1 X
b1 ^
b1 c
b101001 Y
b101 &
b101 ?
b101 ]
b101 a
b0 b
b100 `
b101000000 (
b101000000 B
b101000000 j
b101000000 l
b1000000 #
b1000000 6
b1000000 _
b1000000 o
b11 *
b11 H
b11 k
b11 p
1,
#50
0,
#55
09
1:
b0 P
0F
0=
0>
1@
b1000000001000 Z
b1000000001000 [
1i
1\
b101000 Y
0$
b110 )
b110 C
b110 M
b110 N
1,
#56
b10001000 2
#60
0,
#65
b1 d
1D
b0 K
b0 L
b0 Q
b0 S
b0 R
b0 !
b0 3
b0 O
b0 T
b0 V
b0 W
b0 f
b0 m
18
0:
b10 P
1F
1=
1>
0@
b11010000010 Z
b11010000010 [
0i
0\
1$
b0 %
b0 7
b0 X
b0 ^
b0 c
b100001 Y
b100 &
b100 ?
b100 ]
b100 a
b1111 b
b1001111 (
b1001111 B
b1001111 j
b1001111 l
b1001111 #
b1001111 6
b1001111 _
b1001111 o
b100 *
b100 H
b100 k
b100 p
1,
#70
0,
#75
08
1:
b0 P
0F
0=
0>
1@
b1000000001000 Z
b1000000001000 [
1i
1\
1"
b100010 Y
0$
b0 )
b0 C
b0 M
b0 N
b1 e
1,
#80
0,
#85
b0 d
0D
b1111 K
b1111 L
b1111 Q
b1111 S
b1111 R
b1111 !
b1111 3
b1111 O
b1111 T
b1111 V
b1111 W
b1111 f
b1111 m
18
0:
b10 P
1F
1=
1>
0@
b11010000010 Z
b11010000010 [
0i
0\
b100011 Y
1$
b1111 %
b1111 7
b1111 X
b1111 ^
b1111 c
b1010 b
b1010 `
b111110101010 (
b111110101010 B
b111110101010 j
b111110101010 l
b10101010 #
b10101010 6
b10101010 _
b10101010 o
b101 *
b101 H
b101 k
b101 p
1,
#90
0,
#95
08
1:
b0 P
0F
0=
0>
1@
b1000000001000 Z
b1000000001000 [
1i
1\
0"
b100000 Y
0$
b1111 )
b1111 C
b1111 M
b1111 N
b0 e
1,
#100
0,
#105
b1001 K
b1001 L
b1001 Q
b1001 S
b10 d
1J
b1010 !
b1010 3
b1010 O
b1010 T
b1010 V
b1010 W
b1010 f
b1010 m
b11001 R
18
0:
1G
b11 P
1F
1=
1>
0@
b11011000010 Z
b11011000010 [
0i
0\
1$
b1010 %
b1010 7
b1010 X
b1010 ^
b1010 c
b1010001 Y
b1010 &
b1010 ?
b1010 ]
b1010 a
b1000 b
b10 `
b101000101000 (
b101000101000 B
b101000101000 j
b101000101000 l
b101000 #
b101000 6
b101000 _
b101000 o
b110 *
b110 H
b110 k
b110 p
1,
#110
0,
#115
b0 d
0J
b1001 !
b1001 3
b1001 O
b1001 T
b1001 V
b1001 W
b1001 f
b1001 m
08
1:
0G
b0 P
0F
0=
0>
1@
b1000000001000 Z
b1000000001000 [
b1001 K
b1001 L
b1001 Q
b1001 S
1i
1\
b1001 R
1'
b1010100 Y
0$
b1001 )
b1001 C
b1001 M
b1001 N
b10 e
1,
#116
b10101001 2
#120
0,
#125
b1 K
b1 L
b1 Q
b1 S
b1000 !
b1000 3
b1000 O
b1000 T
b1000 V
b1000 W
b1000 f
b1000 m
b1 R
18
0:
b1 P
1G
1=
0@
b1001000010 Z
b1001000010 [
0i
0\
1$
b1000 %
b1000 7
b1000 X
b1000 ^
b1000 c
b10101 Y
b10 &
b10 ?
b10 ]
b10 a
b1010 b
b100 `
b100001001010 (
b100001001010 B
b100001001010 j
b100001001010 l
b1001010 #
b1001010 6
b1001010 _
b1001010 o
b111 *
b111 H
b111 k
b111 p
1,
#130
0,
#135
b1001 K
b1001 L
b1001 Q
b1001 S
b1001 !
b1001 3
b1001 O
b1001 T
b1001 V
b1001 W
b1001 f
b1001 m
b1001 R
08
1:
b0 P
0G
0=
1@
b1000000001000 Z
b1000000001000 [
1i
1\
0'
b10000 Y
0$
b0 e
1,
#136
b11001010 2
#140
0,
#145
b1010 K
b1010 L
b1010 Q
b1010 S
b1010 R
b1010 !
b1010 3
b1010 O
b1010 T
b1010 V
b1010 W
b1010 f
b1010 m
18
0:
b10 P
1F
1=
1>
0@
b11010000010 Z
b11010000010 [
0i
0\
1$
b1010 %
b1010 7
b1010 X
b1010 ^
b1010 c
b100001 Y
b100 &
b100 ?
b100 ]
b100 a
b1100 b
b10 `
b101000101100 (
b101000101100 B
b101000101100 j
b101000101100 l
b101100 #
b101100 6
b101100 _
b101100 o
b1000 *
b1000 H
b1000 k
b1000 p
1,
#150
0,
#155
08
1:
b0 P
0F
0=
0>
1@
b1000000001000 Z
b1000000001000 [
1i
1\
b100000 Y
0$
b1010 )
b1010 C
b1010 M
b1010 N
1,
#160
0,
#165
b10 d
1J
b1110 K
b1110 L
b1110 Q
b1110 S
b1100 !
b1100 3
b1100 O
b1100 T
b1100 V
b1100 W
b1100 f
b1100 m
b11110 R
18
0:
b1 P
1G
1=
0@
b1001000010 Z
b1001000010 [
0i
0\
1$
b1100 %
b1100 7
b1100 X
b1100 ^
b1100 c
b10001 Y
b10 &
b10 ?
b10 ]
b10 a
b1 b
b1010 `
b110010100001 (
b110010100001 B
b110010100001 j
b110010100001 l
b10100001 #
b10100001 6
b10100001 _
b10100001 o
b1001 *
b1001 H
b1001 k
b1001 p
1,
#170
0,
#175
b1010 K
b1010 L
b1010 Q
b1010 S
b0 d
0J
b1010 !
b1010 3
b1010 O
b1010 T
b1010 V
b1010 W
b1010 f
b1010 m
b1010 R
08
1:
b0 P
0G
0=
1@
b1000000001000 Z
b1000000001000 [
1i
1\
1'
b10100 Y
0$
b10 e
1,
#176
b11101011 2
#180
0,
#185
b1011 K
b1011 L
b1011 Q
b1011 S
b0 d
0J
b1 !
b1 3
b1 O
b1 T
b1 V
b1 W
b1 f
b1 m
b1011 R
18
0:
1G
b11 P
1F
1=
1>
0@
b11011000010 Z
b11011000010 [
0i
0\
1$
b1 %
b1 7
b1 X
b1 ^
b1 c
b1010101 Y
b1010 &
b1010 ?
b1010 ]
b1010 a
b1011 b
b1110 `
b111101011 (
b111101011 B
b111101011 j
b111101011 l
b11101011 #
b11101011 6
b11101011 _
b11101011 o
b1010 *
b1010 H
b1010 k
b1010 p
1,
#190
0,
#195
b1011 !
b1011 3
b1011 O
b1011 T
b1011 V
b1011 W
b1011 f
b1011 m
08
1:
0G
b0 P
0F
0=
0>
1@
b1000000001000 Z
b1000000001000 [
b1011 K
b1011 L
b1011 Q
b1011 S
1i
1\
b1011 R
0'
b1010000 Y
0$
b1011 )
b1011 C
b1011 M
b1011 N
b0 e
1,
#196
b100001100 2
#200
0,
#205
b100 K
b100 L
b100 Q
b100 S
b1011 !
b1011 3
b1011 O
b1011 T
b1011 V
b1011 W
b1011 f
b1011 m
b100 R
18
0:
b100 P
1E
1=
1>
0@
b11100000010 Z
b11100000010 [
0i
0\
1$
b1011 %
b1011 7
b1011 X
b1011 ^
b1011 c
b1110001 Y
b1110 &
b1110 ?
b1110 ]
b1110 a
b0 b
b1101 `
b101111010000 (
b101111010000 B
b101111010000 j
b101111010000 l
b11010000 #
b11010000 6
b11010000 _
b11010000 o
b1011 *
b1011 H
b1011 k
b1011 p
1,
#210
0,
#215
b100 !
b100 3
b100 O
b100 T
b100 V
b100 W
b100 f
b100 m
08
1:
b0 P
0E
0=
0>
1@
b1000000001000 Z
b1000000001000 [
b100 K
b100 L
b100 Q
b100 S
1i
1\
b100 R
b1110000 Y
0$
b100 )
b100 C
b100 M
b100 N
1,
#216
b101001110 2
#220
0,
#225
1<
0@
b1001 Z
b1001 [
0i
0\
1$
b0 %
b0 7
b0 X
b0 ^
b0 c
b1101001 Y
b1101 &
b1101 ?
b1101 ]
b1101 a
b101 `
b1010000 (
b1010000 B
b1010000 j
b1010000 l
b1010000 #
b1010000 6
b1010000 _
b1010000 o
b1100 *
b1100 H
b1100 k
b1100 p
1,
#230
0,
#235
0<
1@
b1000000001000 Z
b1000000001000 [
1i
1\
b1101000 Y
0$
b100 +
b100 I
b100 g
1,
#236
b1110 -
b1110 4
b1110 U
b101101111 2
#240
0,
#245
b1110 K
b1110 L
b1110 Q
b1110 S
b1110 R
b1110 !
b1110 3
b1110 O
b1110 T
b1110 V
b1110 W
b1110 f
b1110 m
19
0:
b10 P
1F
1=
1>
0@
b11010000100 Z
b11010000100 [
0i
0\
1$
b101001 Y
b101 &
b101 ?
b101 ]
b101 a
b111 `
b1110000 (
b1110000 B
b1110000 j
b1110000 l
b1110000 #
b1110000 6
b1110000 _
b1110000 o
b1101 *
b1101 H
b1101 k
b1101 p
1,
#250
0,
#255
09
1:
b0 P
0F
0=
0>
1@
b1000000001000 Z
b1000000001000 [
1i
1\
b101000 Y
0$
b1110 )
b1110 C
b1110 M
b1110 N
1,
#256
b110010000 2
#260
0,
#265
15
1A
b1000000111000 Z
b1000000111000 [
0i
0\
1$
b111001 Y
b111 &
b111 ?
b111 ]
b111 a
b0 `
b0 (
b0 B
b0 j
b0 l
b0 #
b0 6
b0 _
b0 o
b1110 *
b1110 H
b1110 k
b1110 p
1,
#270
0,
#275
05
0A
b1000000001000 Z
b1000000001000 [
1i
1\
b111000 Y
0$
b1111 b
b100 `
b1001111 (
b1001111 B
b1001111 j
b1001111 l
b1001111 #
b1001111 6
b1001111 _
b1001111 o
b1111 *
b1111 H
b1111 k
b1111 p
1,
#280
0,
#285
b1111 K
b1111 L
b1111 Q
b1111 S
b1111 R
b1111 !
b1111 3
b1111 O
b1111 T
b1111 V
b1111 W
b1111 f
b1111 m
18
0:
b10 P
1F
1=
1>
0@
b11010000010 Z
b11010000010 [
0i
0\
1$
b1111 %
b1111 7
b1111 X
b1111 ^
b1111 c
b100001 Y
b100 &
b100 ?
b100 ]
b100 a
b1 b
b111 `
b111101110001 (
b111101110001 B
b111101110001 j
b111101110001 l
b1110001 #
b1110001 6
b1110001 _
b1110001 o
b10000 *
b10000 H
b10000 k
b10000 p
1,
#290
0,
#295
08
1:
b0 P
0F
0=
0>
1@
b1000000001000 Z
b1000000001000 [
1i
1\
b100000 Y
0$
b1111 )
b1111 C
b1111 M
b1111 N
1,
#300
0,
#305
15
1A
b1000000111000 Z
b1000000111000 [
0i
0\
1$
b1 %
b1 7
b1 X
b1 ^
b1 c
b111001 Y
b111 &
b111 ?
b111 ]
b111 a
b1 `
b100010001 (
b100010001 B
b100010001 j
b100010001 l
b10001 #
b10001 6
b10001 _
b10001 o
b10001 *
b10001 H
b10001 k
b10001 p
1,
#310
0,
#315
05
0A
b1000000001000 Z
b1000000001000 [
1i
1\
b111000 Y
0$
b1010 b
b100 `
b101001010 (
b101001010 B
b101001010 j
b101001010 l
b1001010 #
b1001010 6
b1001010 _
b1001010 o
b10010 *
b10010 H
b10010 k
b10010 p
1,
#320
0,
#325
b1010 K
b1010 L
b1010 Q
b1010 S
b1010 R
b1010 !
b1010 3
b1010 O
b1010 T
b1010 V
b1010 W
b1010 f
b1010 m
18
0:
b10 P
1F
1=
1>
0@
b11010000010 Z
b11010000010 [
0i
0\
1$
b1010 %
b1010 7
b1010 X
b1010 ^
b1010 c
b100001 Y
b100 &
b100 ?
b100 ]
b100 a
b10 b
b111 `
b101001110010 (
b101001110010 B
b101001110010 j
b101001110010 l
b1110010 #
b1110010 6
b1110010 _
b1110010 o
b10011 *
b10011 H
b10011 k
b10011 p
1,
#330
0,
#335
08
1:
b0 P
0F
0=
0>
1@
b1000000001000 Z
b1000000001000 [
1i
1\
b100000 Y
0$
b1010 )
b1010 C
b1010 M
b1010 N
1,
#340
0,
#345
15
1A
b1000000111000 Z
b1000000111000 [
0i
0\
1$
b10 %
b10 7
b10 X
b10 ^
b10 c
b111001 Y
b111 &
b111 ?
b111 ]
b111 a
b10 `
b1000100010 (
b1000100010 B
b1000100010 j
b1000100010 l
b100010 #
b100010 6
b100010 _
b100010 o
b10100 *
b10100 H
b10100 k
b10100 p
1,
#350
0,
#355
05
0A
b1000000001000 Z
b1000000001000 [
1i
1\
b111000 Y
0$
b1 b
b100 `
b1001000001 (
b1001000001 B
b1001000001 j
b1001000001 l
b1000001 #
b1000001 6
b1000001 _
b1000001 o
b10101 *
b10101 H
b10101 k
b10101 p
1,
#360
0,
#365
b1 K
b1 L
b1 Q
b1 S
b1 R
b1 !
b1 3
b1 O
b1 T
b1 V
b1 W
b1 f
b1 m
18
0:
b10 P
1F
1=
1>
0@
b11010000010 Z
b11010000010 [
0i
0\
1$
b1 %
b1 7
b1 X
b1 ^
b1 c
b100001 Y
b100 &
b100 ?
b100 ]
b100 a
b11 b
b111 `
b101110011 (
b101110011 B
b101110011 j
b101110011 l
b1110011 #
b1110011 6
b1110011 _
b1110011 o
b10110 *
b10110 H
b10110 k
b10110 p
1,
#370
0,
#375
08
1:
b0 P
0F
0=
0>
1@
b1000000001000 Z
b1000000001000 [
1i
1\
b100000 Y
0$
b1 )
b1 C
b1 M
b1 N
1,
#380
0,
#385
15
1A
b1000000111000 Z
b1000000111000 [
0i
0\
1$
b11 %
b11 7
b11 X
b11 ^
b11 c
b111001 Y
b111 &
b111 ?
b111 ]
b111 a
b11 `
b1100110011 (
b1100110011 B
b1100110011 j
b1100110011 l
b110011 #
b110011 6
b110011 _
b110011 o
b10111 *
b10111 H
b10111 k
b10111 p
1,
#390
0,
#395
05
0A
b1000000001000 Z
b1000000001000 [
1i
1\
b111000 Y
0$
b0 b
b110 `
b1101100000 (
b1101100000 B
b1101100000 j
b1101100000 l
b1100000 #
b1100000 6
b1100000 _
b1100000 o
b11000 *
b11000 H
b11000 k
b11000 p
1,
#400
0,
#405
b0 d
0D
b1110 K
b1110 L
b1110 Q
b1110 S
b1110 R
b1110 !
b1110 3
b1110 O
b1110 T
b1110 V
b1110 W
b1110 f
b1110 m
b1110 n
0:
1A
b10 P
1F
1=
1>
b1011010100000 Z
b1011010100000 [
0i
0\
1$
b0 %
b0 7
b0 X
b0 ^
b0 c
b110001 Y
b110 &
b110 ?
b110 ]
b110 a
b0 `
b0 (
b0 B
b0 j
b0 l
b0 #
b0 6
b0 _
b0 o
b11001 *
b11001 H
b11001 k
b11001 p
1,
#410
0,
#415
1:
0A
b0 P
0F
0=
0>
b1000000001000 Z
b1000000001000 [
1i
1\
b110000 Y
0$
b1110 )
b1110 C
b1110 M
b1110 N
b0 d
0D
b1110 K
b1110 L
b1110 Q
b1110 S
b1110 R
b1110 !
b1110 3
b1110 O
b1110 T
b1110 V
b1110 W
b1110 f
b1110 m
b1 b
b110 `
bx n
b1100001 (
b1100001 B
b1100001 j
b1100001 l
b1100001 #
b1100001 6
b1100001 _
b1100001 o
b11010 *
b11010 H
b11010 k
b11010 p
1,
#420
0,
#425
b1111 K
b1111 L
b1111 Q
b1111 S
b1111 R
b1111 !
b1111 3
b1111 O
b1111 T
b1111 V
b1111 W
b1111 f
b1111 m
b1111 n
0:
1A
b10 P
1F
1=
1>
b1011010100000 Z
b1011010100000 [
0i
0\
b110001 Y
1$
b1 %
b1 7
b1 X
b1 ^
b1 c
b1 `
b100010001 (
b100010001 B
b100010001 j
b100010001 l
b10001 #
b10001 6
b10001 _
b10001 o
b11011 *
b11011 H
b11011 k
b11011 p
1,
#430
0,
#435
1:
0A
b0 P
0F
0=
0>
b1000000001000 Z
b1000000001000 [
1i
1\
b110000 Y
0$
b1111 )
b1111 C
b1111 M
b1111 N
b0 d
0D
b1111 K
b1111 L
b1111 Q
b1111 S
b1111 R
b1111 !
b1111 3
b1111 O
b1111 T
b1111 V
b1111 W
b1111 f
b1111 m
b10 b
b110 `
bx n
b101100010 (
b101100010 B
b101100010 j
b101100010 l
b1100010 #
b1100010 6
b1100010 _
b1100010 o
b11100 *
b11100 H
b11100 k
b11100 p
1,
#440
0,
#445
b1010 K
b1010 L
b1010 Q
b1010 S
b1010 R
b1010 !
b1010 3
b1010 O
b1010 T
b1010 V
b1010 W
b1010 f
b1010 m
b1010 n
0:
1A
b10 P
1F
1=
1>
b1011010100000 Z
b1011010100000 [
0i
0\
b110001 Y
1$
b10 %
b10 7
b10 X
b10 ^
b10 c
b10 `
b1000100010 (
b1000100010 B
b1000100010 j
b1000100010 l
b100010 #
b100010 6
b100010 _
b100010 o
b11101 *
b11101 H
b11101 k
b11101 p
1,
#450
0,
#455
1:
0A
b0 P
0F
0=
0>
b1000000001000 Z
b1000000001000 [
1i
1\
b110000 Y
0$
b1010 )
b1010 C
b1010 M
b1010 N
b0 d
0D
b1010 K
b1010 L
b1010 Q
b1010 S
b1010 R
b1010 !
b1010 3
b1010 O
b1010 T
b1010 V
b1010 W
b1010 f
b1010 m
b11 b
b110 `
bx n
b1001100011 (
b1001100011 B
b1001100011 j
b1001100011 l
b1100011 #
b1100011 6
b1100011 _
b1100011 o
b11110 *
b11110 H
b11110 k
b11110 p
1,
#460
0,
#465
b1 K
b1 L
b1 Q
b1 S
b1 R
b1 !
b1 3
b1 O
b1 T
b1 V
b1 W
b1 f
b1 m
b1 n
0:
1A
b10 P
1F
1=
1>
b1011010100000 Z
b1011010100000 [
0i
0\
b110001 Y
1$
b11 %
b11 7
b11 X
b11 ^
b11 c
b11 `
b1100110011 (
b1100110011 B
b1100110011 j
b1100110011 l
b110011 #
b110011 6
b110011 _
b110011 o
b11111 *
b11111 H
b11111 k
b11111 p
1,
#470
0,
#475
1:
0A
b0 P
0F
0=
0>
b1000000001000 Z
b1000000001000 [
1i
1\
b110000 Y
0$
b1 )
b1 C
b1 M
b1 N
b0 d
0D
b1 K
b1 L
b1 Q
b1 S
b1 R
b1 !
b1 3
b1 O
b1 T
b1 V
b1 W
b1 f
b1 m
b1010 b
b100 `
bx n
b1101001010 (
b1101001010 B
b1101001010 j
b1101001010 l
b1001010 #
b1001010 6
b1001010 _
b1001010 o
b100000 *
b100000 H
b100000 k
b100000 p
1,
#476
b111100000 2
#480
0,
#485
b0 d
0D
b1010 K
b1010 L
b1010 Q
b1010 S
b1010 R
b1010 !
b1010 3
b1010 O
b1010 T
b1010 V
b1010 W
b1010 f
b1010 m
18
0:
b10 P
1F
1=
1>
0@
b11010000010 Z
b11010000010 [
0i
0\
1$
b1010 %
b1010 7
b1010 X
b1010 ^
b1010 c
b100001 Y
b100 &
b100 ?
b100 ]
b100 a
b10 b
b1111 `
b101011110010 (
b101011110010 B
b101011110010 j
b101011110010 l
b11110010 #
b11110010 6
b11110010 _
b11110010 o
b100001 *
b100001 H
b100001 k
b100001 p
1,
#490
0,
#495
08
1:
b0 P
0F
0=
0>
1@
b1000000001000 Z
b1000000001000 [
1i
1\
b100000 Y
0$
b1010 )
b1010 C
b1010 M
b1010 N
1,
#500
0,
#505
b101 K
b101 L
b101 Q
b101 S
b1010 !
b1010 3
b1010 O
b1010 T
b1010 V
b1010 W
b1010 f
b1010 m
b1010 n
b101 R
0:
1A
b100 P
1E
1=
1>
b1011100100000 Z
b1011100100000 [
0i
0\
1$
b10 %
b10 7
b10 X
b10 ^
b10 c
b1111001 Y
b1111 &
b1111 ?
b1111 ]
b1111 a
b10 `
b1000100010 (
b1000100010 B
b1000100010 j
b1000100010 l
b100010 #
b100010 6
b100010 _
b100010 o
b100010 *
b100010 H
b100010 k
b100010 p
1,
#510
0,
#515
1:
0A
b0 P
0E
0=
0>
b1000000001000 Z
b1000000001000 [
1i
1\
b1111000 Y
0$
b101 )
b101 C
b101 M
b101 N
b101 K
b101 L
b101 Q
b101 S
b101 R
b101 !
b101 3
b101 O
b101 T
b101 V
b101 W
b101 f
b101 m
b1111 b
b100 `
bx n
b1001001111 (
b1001001111 B
b1001001111 j
b1001001111 l
b1001111 #
b1001111 6
b1001111 _
b1001111 o
b100011 *
b100011 H
b100011 k
b100011 p
1,
#516
b1000001000 2
#520
0,
#525
b1111 K
b1111 L
b1111 Q
b1111 S
b1111 R
b1111 !
b1111 3
b1111 O
b1111 T
b1111 V
b1111 W
b1111 f
b1111 m
18
0:
b10 P
1F
1=
1>
0@
b11010000010 Z
b11010000010 [
0i
0\
1$
b1111 %
b1111 7
b1111 X
b1111 ^
b1111 c
b100001 Y
b100 &
b100 ?
b100 ]
b100 a
b11 b
b1011 `
b111110110011 (
b111110110011 B
b111110110011 j
b111110110011 l
b10110011 #
b10110011 6
b10110011 _
b10110011 o
b100100 *
b100100 H
b100100 k
b100100 p
1,
#530
0,
#535
08
1:
b0 P
0F
0=
0>
1@
b1000000001000 Z
b1000000001000 [
1i
1\
b100000 Y
0$
b1111 )
b1111 C
b1111 M
b1111 N
1,
#540
0,
#545
1D
b0 K
b0 L
b0 Q
b0 S
b11 d
1J
b1 !
b1 3
b1 O
b1 T
b1 V
b1 W
b1 f
b1 m
b1 n
b10000 R
0:
1A
1G
b11 P
1F
1=
1>
b1011011100000 Z
b1011011100000 [
0i
0\
1$
b11 %
b11 7
b11 X
b11 ^
b11 c
b1011001 Y
b1011 &
b1011 ?
b1011 ]
b1011 a
b11 `
b1100110011 (
b1100110011 B
b1100110011 j
b1100110011 l
b110011 #
b110011 6
b110011 _
b110011 o
b100101 *
b100101 H
b100101 k
b100101 p
1,
#550
0,
#555
1:
0A
0G
b0 P
0F
0=
0>
b1000000001000 Z
b1000000001000 [
1i
1\
1"
1'
b1011110 Y
0$
b0 )
b0 C
b0 M
b0 N
b11 e
1D
b0 K
b0 L
b0 Q
b0 S
b1 d
0J
b0 R
b0 !
b0 3
b0 O
b0 T
b0 V
b0 W
b0 f
b0 m
b1000 b
b100 `
bx n
b1101001000 (
b1101001000 B
b1101001000 j
b1101001000 l
b1001000 #
b1001000 6
b1001000 _
b1001000 o
b100110 *
b100110 H
b100110 k
b100110 p
1,
#556
b1000110000 2
#560
0,
#565
b0 d
0D
b1000 K
b1000 L
b1000 Q
b1000 S
b1000 R
b1000 !
b1000 3
b1000 O
b1000 T
b1000 V
b1000 W
b1000 f
b1000 m
18
0:
b10 P
1F
1=
1>
0@
b11010000010 Z
b11010000010 [
0i
0\
1$
b1000 %
b1000 7
b1000 X
b1000 ^
b1000 c
b100111 Y
b100 &
b100 ?
b100 ]
b100 a
b10 b
b11 `
b100000110010 (
b100000110010 B
b100000110010 j
b100000110010 l
b110010 #
b110010 6
b110010 _
b110010 o
b100111 *
b100111 H
b100111 k
b100111 p
1,
#570
0,
